first_meeting_20190502.utf8.md
…
```r
l_data <- filter(l_data, Country == "Sierra Leone" & Country == "Mozambique" & Country == "Ethiopia" & Country == "India")
```
--

```r
my_countries <- c("Sierra Leone", "Mozambique", "Ethiopia", "India")
l_data <- filter(l_data, Country %in% my_countries)
```

--

```
## # A tibble: 44 x 3
##    Country       Year Deaths
##    <chr>        <dbl>  <int>
##  1 Ethiopia      2017    356
##  2 India         2017    194
##  3 Mozambique    2017   1114
##  4 Sierra Leone  2017   1298
##  5 Ethiopia      2016    510
##  6 India         2016    331
##  7 Mozambique    2016   1685
##  8 Sierra Leone  2016   1345
##  9 Ethiopia      2015    662
## 10 India         2015    384
## # ... with 34 more rows
```
…
